Greyscale
0.0 0.2 0.4 0.6 0.8 1.0
0.0 0.2 0.4 0.6 0.8 1.0
0.0 0.2 0.4 0.6 0.8 1.0
0.0 0.2 0.4 0.6 0.8 1.0
1.0 1.0 1.0 1.0 1.0 1.0
0.0 0.0 0.0 1.0
Red-Yellow
0.0 0.25 0.5 0.75 1.0 1.0
1.0 1.0 1.0 1.0 1.0 1.0
0.0 0.25 0.5 0.75 1.0 1.0
0.0 0.15 0.25 0.35 0.5 1.0
1.0 1.0 1.0 1.0 1.0 1.0
0.0 0.0 0.0 1.0
Blue-LightBlue
0.0 0.25 0.5 0.75 1.0 1.0
0.0 0.1 0.2 0.3 0.4 0.5
0.0 0.2 0.4 0.6 0.6 1.0
1.0 1.0 1.0 1.0 1.0 1.0
1.0 1.0 1.0 1.0 1.0 1.0
0.0 0.0 0.0 1.0
P-value_Render
-0.05 -0.025 0 0 0.025 0.05
1.0 1.0 1.0 0.0 0.0 0.0
0.0 0.5 0.9 0.8 0.5 0.0
0.0 0.0 0.0 1.0 1.0 1.0
1.0 1.0 1.0 1.0 1.0 1.0
0.0 0.0 0.0 1.0
